{
  "dashboard": {
    "id": 1,
    "text": "داشبورد",
    "link": "/",
    "icon": "Tinext-Panel05"
  },
  "createOrder": {
    "id": 2,
    "text": "ثبت سفارش",
    "link": "/new-order",
    "icon": "Tinext-Panel06"
  },
  "myOrders": {
    "id": 3,
    "text": "سفارش های من",
    "link": "/my-orders",
    "icon": "inbox-star"
  },
  "myParcels": {
    "id": 4,
    "text": "مرسوله های من",
    "link": "/my-parcels",
    "icon": "sabte-sefaresh-1101"
  },
  "failedDeliveries": {
    "id": 5,
    "text": "تحویل های ناموفق",
    "link": "/failed-deliveries",
    "icon": "Tinext-Panel08"
  },
  "credit": {
    "id": 6,
    "text": "اعتبار حساب",
    "link": "/transactions",
    "icon": "sabte-sefaresh-1102"
  },
  "codCredit": {
    "id": 7,
    "text": "پرداخت در محل",
    "link": "/cod-credit",
    "icon": "hand-coin-line"
  },
  "invoices": {
    "id": 8,
    "text": "فاکتور",
    "link": "/invoices",
    "icon": "tinext-panelfactorempty01"
  },
  "support": {
    "id": 9,
    "text": "پشتیبانی",
    "link": "/support",
    "icon": "Tinext-Panel10"
  },
  "supportedAreas": {
    "id": 10,
    "text": "محدوده سرویس",
    "link": "/supported-areas",
    "icon": "Group"
  },
  "profile": {
    "id": 11,
    "text": "پروفایل",
    "link": "/profile",
    "icon": "Tinext-Panel16"
  }
}
